{
    "elastic_disableElasticQuery": true, 
    "elastic_baseUrl": "",
    "elastic_caCertificate": "", 
    "elastic_clientCertificate": "", 
    "elastic_clientKey": "", 
    "elastic_apiKey": "",
    "ADMIN_USER": "admin"
}